Discovering Impact of COVID-19 on Thai Tourism Economy – data with derek
…
Rows: 30800 Columns: 7
── Column specification ────────────────────────────────────────────────────────
Delimiter: ","
chr  (5): province_thai, province_eng, region_thai, region_eng, variable
dbl  (1): value
date (1): date

ℹ Use `spec()` to retrieve the full column specification for this data.
ℹ Specify the column types or set `show_col_types = FALSE` to quiet this message.

We can check the contents by using the code chunk below.

tourism

# A tibble: 30,800 × 7
   date       province_thai province_eng   region_thai region_eng variable value
   <date>     <chr>         <chr>          <chr>       <chr>      <chr>    <dbl>
 1 2019-01-01 กรุงเทพมหานคร  Bangkok        ภาคกลาง     central    occupan…  93.4
 2 2019-01-01 ลพบุรี          Lopburi        ภาคกลาง     central    occupan…  61.3
 3 2019-01-01 พระนครศรีอยุธยา Phra Nakhon S… ภาคกลาง     central    occupan…  73.4
 4 2019-01-01 สระบุรี         Saraburi       ภาคกลาง     central    occupan…  67.3
 5 2019-01-01 ชัยนาท         Chainat        ภาคกลาง     central    occupan…  79.3
 6 2019-01-01 นครปฐม        Nakhon Pathom  ภาคกลาง     central    occupan…  71.7
 7 2019-01-01 สิงห์บุรี         Sing Buri      ภาคกลาง     central    occupan…  64.6
 8 2019-01-01 อ่างทอง        Ang Thong      ภาคกลาง     central    occupan…  71.2
 9 2019-01-01 นนทบุรี         Nonthaburi     ภาคกลาง     central    occupan…  75.1
10 2019-01-01 ปทุมธานี        Pathum Thani   ภาคกลาง     central    occupan…  60.8
# ℹ 30,790 more rows
…
The code chunk below runs the Mann Kendall test (without permutations) on each province for the selected variable using MannKendall(). Provinces where the tau value is positive are showing an increasing trend, while negative tau values show decreasing trend.

We display the records with significant test results, and show negative and positive tau values as separate tables.

ehsa <- gi_stars %>%
  group_by(Province) %>%
  summarise(mk = list(
    unclass(
      Kendall::MannKendall(gi_star)))) %>%
  tidyr::unnest_wider(mk)

filter(ehsa, sl < 0.05, tau > 0)

# A tibble: 33 × 6
   Province         tau         sl     S     D  varS
   <chr>          <dbl>      <dbl> <dbl> <dbl> <dbl>
 1 Amnat Charoen  0.956 0.00000250    87  91.0  334.
 2 Bangkok        0.473 0.0215        43  91.0  334.
 3 Bueng Kan      0.626 0.00217       57  91.0  334.
 4 Buriram        0.758 0.000197      69  91.0  334.
 5 Chaiyaphum     0.780 0.000127      71  91.0  334.
 6 Chanthaburi    0.626 0.00217       57  91.0  334.
 7 Kalasin        0.802 0.0000809     73  91.0  334.
 8 Kamphaeng Phet 0.890 0.0000119     81  91.0  334.
 9 Lampang        0.626 0.00217       57  91.0  334.
10 Lamphun        0.956 0.00000250    87  91.0  334.
# ℹ 23 more rows

filter(ehsa, sl < 0.05, tau < 0)

# A tibble: 21 × 6
   Province        tau        sl     S     D  varS
   <chr>         <dbl>     <dbl> <dbl> <dbl> <dbl>
 1 Ang Thong    -0.582 0.00442     -53  91.0  334.
 2 Chachoengsao -0.802 0.0000809   -73  91.0  334.
 3 Chainat      -0.626 0.00217     -57  91.0  334.
 4 Chiang Rai   -0.429 0.0375      -39  91.0  334.
 5 Chumphon     -0.890 0.0000119   -81  91.0  334.
 6 Kanchanaburi -0.890 0.0000119   -81  91.0  334.
 7 Mae Hong Son -0.429 0.0375      -39  91.0  334.
 8 Mukdahan     -0.473 0.0215      -43  91.0  334.
 9 Phetchabun   -0.824 0.0000510   -75  91.0  334.
10 Phetchaburi  -0.802 0.0000809   -73  91.0  334.
# ℹ 11 more rows
…
filter(ehsa, sl < 0.05, tau < 0)

# A tibble: 23 × 6
   Province         tau       sl     S     D  varS
   <chr>          <dbl>    <dbl> <dbl> <dbl> <dbl>
 1 Amnat Charoen -0.780 0.000127   -71  91.0  334.
 2 Chachoengsao  -0.582 0.00442    -53  91.0  334.
 3 Chainat       -0.473 0.0215     -43  91.0  334.
 4 Chaiyaphum    -0.736 0.000302   -67  91.0  334.
 5 Chanthaburi   -0.429 0.0375     -39  91.0  334.
 6 Kanchanaburi  -0.582 0.00442    -53  91.0  334.
 7 Lopburi       -0.451 0.0285     -41  91.0  334.
 8 Nakhon Nayok  -0.604 0.00311    -55  91.0  334.
 9 Nakhon Pathom -0.648 0.00150    -59  91.0  334.
10 Nakhon Sawan  -0.451 0.0285     -41  91.0  334.
# ℹ 13 more rows
…
